{
  "stopped_song": [
    "Nun hast du Ruhe."
  ],
  "volume_not_allowed": [
    "Diese Lautstärke ist leider nicht möglich."
  ],
  "volume_100": [
    "Lauter geht nicht mehr.",
    "Ich spiele schon mit voller Lautstärke."
  ],
  "volume_1": [
    "Leiser geht nicht mehr.",
    "Noch leiser ist nur gar keine Musik."
  ],
  "volume_not_understood": [
    "Ich habe leider die gewünschte Lautstärke nicht verstanden."
  ],
  "no_connection": [
    "Ich konnte leider keine Verbindung zu Yutub herstellen."
  ],
  "no_youtube_key": [
    "Für diese Funktion musst du noch deinen Yutub Schlüssel eintragen."
  ],
  "genre_not_understood": [
    "Ich habe leider die gewünschte Kategorie nicht verstanden."
  ],
  "genre_search_appendix": [
    "Musikgenre"
  ],
  "download_song": [
    "Ich speichere dir das Lied ab."
  ],
  "song_already_saved": [
    "Ich weiß, du hast es ja schon abgespeichert."
  ],
  "no_song_playing": [
    "Du musst dir dazu schon ein Lied anhören."
  ],
  "no_songs": [
    "Ohne Musik wäre das Leben ein Irrtum. Dir fehlt wohl etwas."
  ],
  "play_by_favorite_next": [
    "Die nächsten Lieder werden auf diesem Lied basieren.",
    "Die folgenden Songs spiele ich dir passend zu dem jetzigen Lied."
  ],
  "play_by_favorite_new": [
    "Die nächsten Lieder werden auf einem zufälligen deiner Lieder basieren.",
    "Die folgenden Songs spiele ich dir passend zu einem deiner Lieder."
  ],
  "play_by_favorite_youtube": [
    "Ich spiele dir schon die Empfehlungen."
  ]
}
