{
  "stopped_song": [
    "Now you have your silence."
  ],
  "volume_not_allowed": [
    "I'm afraid this volume is not possible."
  ],
  "volume_100": [
    "Louder than that doesn't work.",
    "I'm already playing at full volume."
  ],
  "volume_1": [
    "Quieter than that doesn't work.",
    "The only thing quieter is no music at all."
  ],
  "volume_not_understood": [
    "Sorry, I didn't understand the volume you requested."
  ],
  "no_connection": [
    "Sorry, I couldn't connect to Yutub."
  ],
  "no_youtube_key": [
    "For this function you must enter your Yutub key."
  ],
  "genre_not_understood": [
    "I'm sorry, I didn't understand the category you requested."
  ],
  "genre_search_appendix": [
    "Music genre"
  ],
  "download_song": [
    "I'll save you the song."
  ],
  "song_already_saved": [
    "I know, you've already saved it."
  ],
  "no_song_playing": [
    "You have to listen to a song for this."
  ],
  "no_songs": [
    "Without music, life would be a mistake. You must be missing something."
  ],
  "play_by_favorite_next": [
    "The next songs will be based on this song.",
    "The following songs will be based on this song."
  ],
  "play_by_favorite_new": [
    "The next songs will be based on a random one of your songs.",
    "The following songs will be based on a random one of your songs."
  ],
  "play_by_favorite_youtube": [
    "I'm already playing the recommendations."
  ]
}
